<?xml version="1.0" encoding="utf-8" standalone="no"?>
<!DOCTYPE svg PUBLIC "-//W3C//DTD SVG 1.1//EN"
  "http://www.w3.org/Graphics/SVG/1.1/DTD/svg11.dtd">
<!-- Created with matplotlib (http://matplotlib.org/) -->
<svg height="303pt" version="1.1" viewBox="0 0 491 303" width="491pt" xmlns="http://www.w3.org/2000/svg" xmlns:xlink="http://www.w3.org/1999/xlink">
 <defs>
  <style type="text/css">
*{stroke-linecap:butt;stroke-linejoin:round;}
  </style>
 </defs>
 <g id="figure_1">
  <g id="patch_1">
   <path d="M 0 303.84 
L 491.76 303.84 
L 491.76 0 
L 0 0 
z
" style="fill:#222222;"/>
  </g>
  <g id="axes_1">
   <g id="patch_2">
    <path d="M 87.658037 246.969106 
L 457.296455 246.969106 
L 457.296455 18.52 
L 87.658037 18.52 
z
" style="fill:#222222;"/>
   </g>
   <g id="patch_3">
    <path clip-path="url(#p2d6cf069c6)" d="M 88.420323 246.969106 
L 88.420323 236.942812 
L 90.091687 236.942812 
L 90.091687 227.919147 
L 91.763052 227.919147 
L 91.763052 222.906 
L 93.434416 222.906 
L 93.434416 209.871818 
L 95.10578 209.871818 
L 95.10578 194.832378 
L 96.777144 194.832378 
L 96.777144 170.769272 
L 98.448508 170.769272 
L 98.448508 169.766643 
L 100.119872 169.766643 
L 100.119872 156.732461 
L 101.791236 156.732461 
L 101.791236 145.703538 
L 103.4626 145.703538 
L 103.4626 119.635174 
L 105.133964 119.635174 
L 105.133964 141.69302 
L 106.805328 141.69302 
L 106.805328 82.537886 
L 108.476693 82.537886 
L 108.476693 89.556292 
L 110.148057 89.556292 
L 110.148057 93.56681 
L 111.819421 93.56681 
L 111.819421 50.453746 
L 113.490785 50.453746 
L 113.490785 47.445858 
L 115.162149 47.445858 
L 115.162149 64.490557 
L 116.833513 64.490557 
L 116.833513 46.443228 
L 118.504877 46.443228 
L 118.504877 41.430081 
L 120.176241 41.430081 
L 120.176241 38.422193 
L 121.847605 38.422193 
L 121.847605 29.398529 
L 123.518969 29.398529 
L 123.518969 47.445858 
L 125.190334 47.445858 
L 125.190334 53.461634 
L 126.861698 53.461634 
L 126.861698 68.501075 
L 130.204426 68.501075 
L 130.204426 32.406417 
L 131.87579 32.406417 
L 131.87579 51.456375 
L 133.547154 51.456375 
L 133.547154 67.498446 
L 135.218518 67.498446 
L 135.218518 48.448487 
L 136.889882 48.448487 
L 136.889882 56.469522 
L 138.561246 56.469522 
L 138.561246 51.456375 
L 140.23261 51.456375 
L 140.23261 100.585215 
L 141.903975 100.585215 
L 141.903975 76.52211 
L 143.575339 76.52211 
L 143.575339 60.48004 
L 145.246703 60.48004 
L 145.246703 58.474781 
L 146.918067 58.474781 
L 146.918067 79.529998 
L 150.260795 79.529998 
L 150.260795 56.469522 
L 151.932159 56.469522 
L 151.932159 82.537886 
L 153.603523 82.537886 
L 153.603523 68.501075 
L 155.274887 68.501075 
L 155.274887 82.537886 
L 156.946251 82.537886 
L 156.946251 78.527369 
L 158.617616 78.527369 
L 158.617616 98.579957 
L 160.28898 98.579957 
L 160.28898 64.490557 
L 161.960344 64.490557 
L 161.960344 85.545774 
L 163.631708 85.545774 
L 163.631708 88.553663 
L 165.303072 88.553663 
L 165.303072 77.524739 
L 166.974436 77.524739 
L 166.974436 72.511592 
L 168.6458 72.511592 
L 168.6458 65.493187 
L 170.317164 65.493187 
L 170.317164 86.548404 
L 171.988528 86.548404 
L 171.988528 57.472152 
L 173.659892 57.472152 
L 173.659892 58.474781 
L 175.331257 58.474781 
L 175.331257 90.558921 
L 177.002621 90.558921 
L 177.002621 97.577327 
L 178.673985 97.577327 
L 178.673985 93.56681 
L 180.345349 93.56681 
L 180.345349 82.537886 
L 182.016713 82.537886 
L 182.016713 72.511592 
L 183.688077 72.511592 
L 183.688077 94.569439 
L 185.359441 94.569439 
L 185.359441 98.579957 
L 187.030805 98.579957 
L 187.030805 86.548404 
L 188.702169 86.548404 
L 188.702169 111.614139 
L 190.373533 111.614139 
L 190.373533 85.545774 
L 192.044898 85.545774 
L 192.044898 95.572068 
L 193.716262 95.572068 
L 193.716262 108.60625 
L 195.387626 108.60625 
L 195.387626 95.572068 
L 197.05899 95.572068 
L 197.05899 119.635174 
L 198.730354 119.635174 
L 198.730354 115.624656 
L 200.401718 115.624656 
L 200.401718 107.603621 
L 202.073082 107.603621 
L 202.073082 99.582586 
L 203.744446 99.582586 
L 203.744446 123.645691 
L 205.41581 123.645691 
L 205.41581 104.595733 
L 207.087174 104.595733 
L 207.087174 89.556292 
L 208.758539 89.556292 
L 208.758539 109.60888 
L 210.429903 109.60888 
L 210.429903 110.611509 
L 212.101267 110.611509 
L 212.101267 113.619397 
L 213.772631 113.619397 
L 213.772631 117.629915 
L 215.443995 117.629915 
L 215.443995 104.595733 
L 217.115359 104.595733 
L 217.115359 112.616768 
L 218.786723 112.616768 
L 218.786723 127.656209 
L 220.458087 127.656209 
L 220.458087 97.577327 
L 222.129451 97.577327 
L 222.129451 124.648321 
L 223.800815 124.648321 
L 223.800815 133.671985 
L 225.47218 133.671985 
L 225.47218 123.645691 
L 227.143544 123.645691 
L 227.143544 143.698279 
L 228.814908 143.698279 
L 228.814908 137.682503 
L 230.486272 137.682503 
L 230.486272 112.616768 
L 232.157636 112.616768 
L 232.157636 108.60625 
L 233.829 108.60625 
L 233.829 127.656209 
L 235.500364 127.656209 
L 235.500364 117.629915 
L 237.171728 117.629915 
L 237.171728 132.669356 
L 238.843092 132.669356 
L 238.843092 131.666726 
L 240.514456 131.666726 
L 240.514456 132.669356 
L 242.185821 132.669356 
L 242.185821 151.719314 
L 243.857185 151.719314 
L 243.857185 144.700908 
L 245.528549 144.700908 
L 245.528549 120.637803 
L 247.199913 120.637803 
L 247.199913 107.603621 
L 248.871277 107.603621 
L 248.871277 131.666726 
L 250.542641 131.666726 
L 250.542641 148.711426 
L 252.214005 148.711426 
L 252.214005 124.648321 
L 253.885369 124.648321 
L 253.885369 144.700908 
L 255.556733 144.700908 
L 255.556733 137.682503 
L 257.228097 137.682503 
L 257.228097 151.719314 
L 258.899462 151.719314 
L 258.899462 113.619397 
L 260.570826 113.619397 
L 260.570826 132.669356 
L 262.24219 132.669356 
L 262.24219 128.658838 
L 263.913554 128.658838 
L 263.913554 148.711426 
L 267.256282 148.711426 
L 267.256282 139.687761 
L 268.927646 139.687761 
L 268.927646 158.73772 
L 270.59901 158.73772 
L 270.59901 157.73509 
L 273.941738 157.73509 
L 273.941738 145.703538 
L 275.613103 145.703538 
L 275.613103 158.73772 
L 277.284467 158.73772 
L 277.284467 154.727202 
L 278.955831 154.727202 
L 278.955831 164.753496 
L 280.627195 164.753496 
L 280.627195 160.742978 
L 282.298559 160.742978 
L 282.298559 145.703538 
L 283.969923 145.703538 
L 283.969923 160.742978 
L 285.641287 160.742978 
L 285.641287 154.727202 
L 287.312651 154.727202 
L 287.312651 164.753496 
L 288.984015 164.753496 
L 288.984015 154.727202 
L 290.655379 154.727202 
L 290.655379 163.750867 
L 292.326744 163.750867 
L 292.326744 167.761384 
L 293.998108 167.761384 
L 293.998108 169.766643 
L 295.669472 169.766643 
L 295.669472 164.753496 
L 297.340836 164.753496 
L 297.340836 154.727202 
L 299.0122 154.727202 
L 299.0122 149.714055 
L 300.683564 149.714055 
L 300.683564 175.782419 
L 302.354928 175.782419 
L 302.354928 177.787678 
L 304.026292 177.787678 
L 304.026292 176.785049 
L 305.697656 176.785049 
L 305.697656 164.753496 
L 307.36902 164.753496 
L 307.36902 163.750867 
L 310.711749 163.750867 
L 310.711749 175.782419 
L 312.383113 175.782419 
L 312.383113 171.771902 
L 314.054477 171.771902 
L 314.054477 182.800825 
L 315.725841 182.800825 
L 315.725841 179.792937 
L 317.397205 179.792937 
L 317.397205 176.785049 
L 319.068569 176.785049 
L 319.068569 180.795566 
L 320.739933 180.795566 
L 320.739933 192.827119 
L 322.411297 192.827119 
L 322.411297 161.745608 
L 324.082661 161.745608 
L 324.082661 179.792937 
L 325.754026 179.792937 
L 325.754026 205.861301 
L 327.42539 205.861301 
L 327.42539 176.785049 
L 329.096754 176.785049 
L 329.096754 189.819231 
L 330.768118 189.819231 
L 330.768118 182.800825 
L 332.439482 182.800825 
L 332.439482 191.824489 
L 334.110846 191.824489 
L 334.110846 186.811343 
L 335.78221 186.811343 
L 335.78221 188.816601 
L 337.453574 188.816601 
L 337.453574 185.808713 
L 339.124938 185.808713 
L 339.124938 195.835007 
L 340.796302 195.835007 
L 340.796302 193.829748 
L 342.467667 193.829748 
L 342.467667 190.82186 
L 344.139031 190.82186 
L 344.139031 202.853413 
L 345.810395 202.853413 
L 345.810395 195.835007 
L 347.481759 195.835007 
L 347.481759 193.829748 
L 349.153123 193.829748 
L 349.153123 190.82186 
L 350.824487 190.82186 
L 350.824487 211.877077 
L 352.495851 211.877077 
L 352.495851 200.848154 
L 355.838579 200.848154 
L 355.838579 203.856042 
L 357.509943 203.856042 
L 357.509943 192.827119 
L 359.181308 192.827119 
L 359.181308 207.86656 
L 360.852672 207.86656 
L 360.852672 204.858671 
L 362.524036 204.858671 
L 362.524036 189.819231 
L 364.1954 189.819231 
L 364.1954 203.856042 
L 365.866764 203.856042 
L 365.866764 210.874448 
L 367.538128 210.874448 
L 367.538128 203.856042 
L 369.209492 203.856042 
L 369.209492 222.906 
L 370.880856 222.906 
L 370.880856 212.879707 
L 372.55222 212.879707 
L 372.55222 219.898112 
L 374.223584 219.898112 
L 374.223584 212.879707 
L 375.894949 212.879707 
L 375.894949 214.884965 
L 377.566313 214.884965 
L 377.566313 219.898112 
L 379.237677 219.898112 
L 379.237677 226.916518 
L 380.909041 226.916518 
L 380.909041 214.884965 
L 382.580405 214.884965 
L 382.580405 210.874448 
L 384.251769 210.874448 
L 384.251769 218.895483 
L 385.923133 218.895483 
L 385.923133 216.890224 
L 387.594497 216.890224 
L 387.594497 223.90863 
L 389.265861 223.90863 
L 389.265861 229.924406 
L 390.937225 229.924406 
L 390.937225 230.927036 
L 392.60859 230.927036 
L 392.60859 225.913889 
L 395.951318 225.913889 
L 395.951318 226.916518 
L 397.622682 226.916518 
L 397.622682 227.919147 
L 399.294046 227.919147 
L 399.294046 237.945441 
L 400.96541 237.945441 
L 400.96541 226.916518 
L 402.636774 226.916518 
L 402.636774 224.911259 
L 404.308138 224.911259 
L 404.308138 233.934924 
L 405.979502 233.934924 
L 405.979502 237.945441 
L 407.650866 237.945441 
L 407.650866 239.9507 
L 410.993595 239.9507 
L 410.993595 241.955959 
L 412.664959 241.955959 
L 412.664959 239.9507 
L 414.336323 239.9507 
L 414.336323 244.963847 
L 416.007687 244.963847 
L 416.007687 241.955959 
L 417.679051 241.955959 
L 417.679051 243.961218 
L 419.350415 243.961218 
L 419.350415 244.963847 
L 422.693143 244.963847 
L 422.693143 246.969106 
L 422.693143 246.969106 
" style="fill:none;stroke:#ffa500;stroke-linejoin:miter;"/>
   </g>
   <g id="matplotlib.axis_1">
    <g id="xtick_1">
     <g id="line2d_1">
      <defs>
       <path d="M 0 0 
L 0 3.5 
" id="m91e828766c" style="stroke:#ffffff;stroke-width:0.8;"/>
      </defs>
      <g>
       <use style="fill:#ffffff;stroke:#ffffff;stroke-width:0.8;" x="87.658037" xlink:href="#m91e828766c" y="246.969106"/>
      </g>
     </g>
     <g id="text_1">
      <!-- $0$ -->
      <defs>
       <path d="M 27.796875 68.6875 
C 13.5 68.6875 4.09375 56.046875 4.09375 33.890625 
C 4.09375 11.75 13.5 -1 27.796875 -1 
C 42.09375 -1 51.5 11.75 51.5 33.890625 
C 51.5 56.046875 42.09375 68.6875 27.796875 68.6875 
z
M 27.796875 64 
C 37 64 42 53.765625 42 33.890625 
C 42 14.03125 37 3.796875 27.796875 3.796875 
C 18.59375 3.796875 13.5 13.921875 13.5 33.796875 
C 13.5 53.765625 18.59375 64 27.796875 64 
z
" id="Bitstream_Charter-48"/>
      </defs>
      <g style="fill:#ffffff;" transform="translate(83.403887 265.446147)scale(0.16 -0.16)">
       <use transform="scale(0.95642)" xlink:href="#Bitstream_Charter-48"/>
      </g>
     </g>
    </g>
    <g id="xtick_2">
     <g id="line2d_2">
      <g>
       <use style="fill:#ffffff;stroke:#ffffff;stroke-width:0.8;" x="154.865022" xlink:href="#m91e828766c" y="246.969106"/>
      </g>
     </g>
     <g id="text_2">
      <!-- $10$ -->
      <defs>
       <path d="M 31.09375 68 
L 9.40625 61.53125 
L 9.40625 57.34375 
L 25.09375 60.140625 
L 25.09375 6.578125 
L 23.90625 4.59375 
L 12.40625 4.59375 
L 12.40625 0 
L 45.90625 0 
L 45.90625 4.59375 
L 35.09375 4.59375 
L 33.90625 6.1875 
L 33.90625 68 
z
" id="Bitstream_Charter-49"/>
      </defs>
      <g style="fill:#ffffff;" transform="translate(146.356722 265.446147)scale(0.16 -0.16)">
       <use transform="scale(0.95642)" xlink:href="#Bitstream_Charter-49"/>
       <use transform="translate(53.176929 0)scale(0.95642)" xlink:href="#Bitstream_Charter-48"/>
      </g>
     </g>
    </g>
    <g id="xtick_3">
     <g id="line2d_3">
      <g>
       <use style="fill:#ffffff;stroke:#ffffff;stroke-width:0.8;" x="222.072007" xlink:href="#m91e828766c" y="246.969106"/>
      </g>
     </g>
     <g id="text_3">
      <!-- $20$ -->
      <defs>
       <path d="M 14.09375 7.890625 
C 36.203125 25.4375 48.296875 36.703125 48.296875 49.265625 
C 48.296875 60.515625 40.40625 68.09375 27.5 68.09375 
C 15.09375 68.09375 6.296875 61 6.296875 54.03125 
C 6.296875 50.640625 8.40625 48.4375 11.90625 48.4375 
C 13.5 48.4375 15 48.9375 16.40625 49.9375 
L 16.40625 60.609375 
C 19.40625 62.296875 22.296875 63 25.296875 63 
C 33.59375 63 38.59375 57.421875 38.59375 47.96875 
C 38.59375 34.90625 26.09375 24.03125 4.203125 6.296875 
L 4.203125 0 
L 50.5 0 
L 50.5 16.359375 
L 46 16.359375 
L 44.203125 7.890625 
z
" id="Bitstream_Charter-50"/>
      </defs>
      <g style="fill:#ffffff;" transform="translate(213.563707 265.446147)scale(0.16 -0.16)">
       <use transform="scale(0.95642)" xlink:href="#Bitstream_Charter-50"/>
       <use transform="translate(53.176929 0)scale(0.95642)" xlink:href="#Bitstream_Charter-48"/>
      </g>
     </g>
    </g>
    <g id="xtick_4">
     <g id="line2d_4">
      <g>
       <use style="fill:#ffffff;stroke:#ffffff;stroke-width:0.8;" x="289.278992" xlink:href="#m91e828766c" y="246.969106"/>
      </g>
     </g>
     <g id="text_4">
      <!-- $30$ -->
      <defs>
       <path d="M 31.703125 35.234375 
C 41.5 38.03125 46.59375 43.703125 46.59375 51.375 
C 46.59375 61.421875 38.90625 68.09375 26.90625 68.09375 
C 14.40625 68.09375 5.796875 61.46875 5.796875 54.953125 
C 5.796875 51.796875 8 49.609375 11.203125 49.609375 
C 12.796875 49.609375 14.09375 50.015625 15.296875 50.890625 
L 15.296875 60.140625 
C 18.203125 62.125 21.296875 63 24.796875 63 
C 32.5 63 37.5 57.96875 37.5 50.203125 
C 37.5 42.21875 32.09375 37.5 22 37.5 
C 21.296875 37.5 20.59375 37.59375 19.90625 37.59375 
L 19.90625 31.703125 
C 21.796875 32 23.59375 32 25.203125 32 
C 34.796875 32 40 27.390625 40 19.484375 
C 40 10.59375 33.40625 3.6875 24.296875 3.6875 
C 21.296875 3.6875 18.5 4.484375 15.796875 6.09375 
L 12.703125 14.625 
C 11.59375 15.03125 10.59375 15.125 9.703125 15.125 
C 6.5 15.125 4.09375 12.921875 4.09375 10.015625 
C 4.09375 4.90625 12 -1 23.90625 -1 
C 39.296875 -1 49.203125 8.0625 49.203125 19.203125 
C 49.203125 28.265625 42.796875 34.4375 31.703125 35.234375 
z
" id="Bitstream_Charter-51"/>
      </defs>
      <g style="fill:#ffffff;" transform="translate(280.770692 265.446147)scale(0.16 -0.16)">
       <use transform="scale(0.95642)" xlink:href="#Bitstream_Charter-51"/>
       <use transform="translate(53.176929 0)scale(0.95642)" xlink:href="#Bitstream_Charter-48"/>
      </g>
     </g>
    </g>
    <g id="xtick_5">
     <g id="line2d_5">
      <g>
       <use style="fill:#ffffff;stroke:#ffffff;stroke-width:0.8;" x="356.485977" xlink:href="#m91e828766c" y="246.969106"/>
      </g>
     </g>
     <g id="text_5">
      <!-- $40$ -->
      <defs>
       <path d="M 36.796875 67 
L 2.703125 25.484375 
L 2.703125 19 
L 34.90625 19 
L 34.90625 -4 
L 42.59375 -4 
L 42.59375 19 
L 53.90625 19 
L 53.90625 25.484375 
L 42.59375 25.484375 
L 42.59375 67 
z
M 34.90625 56.171875 
L 34.90625 25.484375 
L 10.203125 25.484375 
z
" id="Bitstream_Charter-52"/>
      </defs>
      <g style="fill:#ffffff;" transform="translate(347.977677 265.446147)scale(0.16 -0.16)">
       <use transform="scale(0.95642)" xlink:href="#Bitstream_Charter-52"/>
       <use transform="translate(53.176929 0)scale(0.95642)" xlink:href="#Bitstream_Charter-48"/>
      </g>
     </g>
    </g>
    <g id="xtick_6">
     <g id="line2d_6">
      <g>
       <use style="fill:#ffffff;stroke:#ffffff;stroke-width:0.8;" x="423.692962" xlink:href="#m91e828766c" y="246.969106"/>
      </g>
     </g>
     <g id="text_6">
      <!-- $50$ -->
      <defs>
       <path d="M 10.09375 66.78125 
L 10.09375 34.203125 
C 12.296875 34.703125 15.203125 34.703125 18.90625 34.703125 
C 32.796875 34.703125 39.703125 29.96875 39.703125 19.640625 
C 39.703125 10.296875 33.296875 3.578125 23.90625 3.578125 
C 21.703125 3.578125 19.40625 3.984375 17.203125 4.796875 
L 13.203125 13.453125 
C 12.203125 13.65625 11.40625 13.765625 10.796875 13.765625 
C 7.40625 13.765625 5 11.546875 5 8.4375 
C 5 3.609375 11.90625 -1 22.203125 -1 
C 38.59375 -1 48.90625 8.734375 48.90625 21.703125 
C 48.90625 33.15625 40.40625 41 27 41 
C 23.796875 41 20.203125 40.5 16.296875 39.40625 
L 16.296875 59 
L 45.90625 59 
L 45.90625 66.78125 
z
" id="Bitstream_Charter-53"/>
      </defs>
      <g style="fill:#ffffff;" transform="translate(415.184662 265.446147)scale(0.16 -0.16)">
       <use transform="scale(0.95642)" xlink:href="#Bitstream_Charter-53"/>
       <use transform="translate(53.176929 0)scale(0.95642)" xlink:href="#Bitstream_Charter-48"/>
      </g>
     </g>
    </g>
    <g id="text_7">
     <!-- travel time to work (minutes) -->
     <defs>
      <path d="M 8.796875 42.3125 
L 8.796875 10.078125 
C 8.796875 2.984375 10.90625 0 19.203125 0 
C 23.09375 0 27.59375 0.703125 32.296875 2.203125 
L 32.296875 5.890625 
C 30 5.390625 27.703125 5.09375 25.40625 5.09375 
C 18.40625 5.09375 17.09375 8.375 17.09375 15.96875 
L 17.09375 42.3125 
L 32.296875 42.3125 
L 32.296875 47 
L 17.09375 47 
L 17.09375 57.5 
L 13.40625 57.5 
L 9.09375 48.296875 
L 2.5 45.40625 
L 2.5 42.3125 
z
" id="Bitstream_Charter-116"/>
      <path d="M 3 0.5 
L 27.09375 0.5 
L 27.09375 4.09375 
L 20.09375 4.59375 
L 18.40625 6.1875 
L 18.40625 34.71875 
C 22.5 39.515625 26 42 29.296875 42 
C 31.40625 42 33.09375 41.203125 34.40625 39.609375 
L 37.59375 39.609375 
L 37.59375 48.1875 
C 35.5 49.09375 33.59375 49.484375 31.59375 49.484375 
C 30.796875 49.484375 29.90625 49.484375 29.09375 49.296875 
C 25.5 46.390625 21.90625 43.203125 18.40625 39.609375 
L 18.40625 48.984375 
L 14.59375 48.984375 
L 3 45.390625 
L 3 42.296875 
L 10.09375 42.296875 
L 10.09375 6.1875 
L 8.296875 4.59375 
L 3 4.09375 
z
" id="Bitstream_Charter-114"/>
      <path d="M 33.40625 5.484375 
L 34.703125 -0.296875 
L 48.796875 -0.296875 
L 48.796875 3.296875 
L 43.5 3.796875 
L 41.703125 5.390625 
L 41.703125 34.546875 
C 41.703125 44.6875 37.296875 49 26.796875 49 
C 14.203125 49 6.59375 43.78125 6.59375 37.671875 
C 6.59375 35.25 7.40625 34.5625 9.703125 34.5625 
L 16.59375 34.5625 
L 16.59375 43 
C 19.296875 44.109375 21.703125 44.609375 24.203125 44.609375 
C 31.40625 44.609375 33.40625 41.3125 33.40625 33.359375 
L 33.40625 30.140625 
C 13.40625 25.328125 4.203125 22.3125 4.203125 11.859375 
C 4.203125 4.328125 9.09375 -1 17 -1 
C 21.796875 -1 27.09375 1.203125 33.40625 5.484375 
z
M 33.40625 8.921875 
C 28.40625 6 24.296875 4.390625 21 4.390625 
C 16 4.390625 13 7.71875 13 12.640625 
C 13 19.984375 19.296875 22.703125 33.40625 26.625 
z
" id="Bitstream_Charter-97"/>
      <path d="M -0.5 48 
L -0.5 44.3125 
L 5.59375 43.71875 
L 21.703125 0 
L 27.296875 0 
L 44.796875 43.515625 
L 50.703125 44.3125 
L 50.703125 48 
L 33 48 
L 33 44.3125 
L 38.40625 43.921875 
L 39.203125 42.3125 
L 26.40625 9.6875 
L 14.703125 42.3125 
L 15.90625 43.921875 
L 21.203125 44.3125 
L 21.203125 48 
z
" id="Bitstream_Charter-118"/>
      <path d="M 44.796875 10.4375 
C 39.09375 6.65625 34.09375 4.6875 29.09375 4.6875 
C 19 4.6875 12.296875 12.21875 12.296875 24.90625 
C 12.296875 25.203125 12.296875 25.59375 12.296875 26 
L 44.703125 26 
C 44.796875 27.109375 44.796875 28.109375 44.796875 29.125 
C 44.796875 41.546875 37.703125 49 26.796875 49 
C 13.40625 49 3.703125 38.703125 3.703125 23.59375 
C 3.703125 8.890625 12.796875 -1 26 -1 
C 32.296875 -1 38.796875 0.984375 44.796875 4.984375 
z
M 35.90625 30.390625 
L 12.796875 30.390625 
C 13.40625 38.90625 19.09375 44.515625 25.5 44.515625 
C 32.203125 44.515625 35.90625 39.953125 35.90625 31.53125 
C 35.90625 31.03125 35.90625 30.390625 35.90625 30.390625 
z
" id="Bitstream_Charter-101"/>
      <path d="M 2.796875 0 
L 26.203125 0 
L 26.203125 3.609375 
L 20.5 4.109375 
L 18.703125 5.703125 
L 18.703125 73.5 
L 14.90625 73.5 
L 2.703125 70 
L 2.703125 67 
L 10.40625 67 
L 10.40625 5.703125 
L 8.703125 4.109375 
L 2.796875 3.609375 
z
" id="Bitstream_Charter-108"/>
      <path d="M 15.40625 70.484375 
C 12.203125 70.484375 9.59375 67.984375 9.59375 64.6875 
C 9.59375 61.5 12.203125 59 15.40625 59 
C 18.59375 59 21.203125 61.5 21.203125 64.6875 
C 21.203125 67.875 18.59375 70.484375 15.40625 70.484375 
z
M 15 48.34375 
L 3.5 44.765625 
L 3.5 41.6875 
L 10.5 41.6875 
L 10.5 5.671875 
L 8.796875 4.078125 
L 3.5 3.578125 
L 3.5 0 
L 26 0 
L 26 3.578125 
L 20.59375 4.078125 
L 18.796875 5.671875 
L 18.796875 48.34375 
z
" id="Bitstream_Charter-105"/>
      <path d="M 45.40625 41.890625 
C 43.09375 46.28125 39.296875 48.578125 34.40625 48.578125 
C 30.203125 48.578125 25 46.484375 18.40625 42.59375 
L 18.40625 48.078125 
L 14.59375 48.078125 
L 3 44.484375 
L 3 41.390625 
L 10.09375 41.390625 
L 10.09375 5.203125 
L 8.40625 3.59375 
L 3 3.09375 
L 3 -0.5 
L 24.90625 -0.5 
L 24.90625 3.09375 
L 20.09375 3.59375 
L 18.40625 5.203125 
L 18.40625 38.6875 
C 22.796875 40.90625 26.5 42 29.796875 42 
C 35.796875 42 38.59375 38.703125 38.59375 31.703125 
L 38.59375 5.203125 
L 36.90625 3.59375 
L 32.09375 3.09375 
L 32.09375 -0.5 
L 53.40625 -0.5 
L 53.40625 3.09375 
L 48.703125 3.59375 
L 46.90625 5.203125 
L 46.90625 38.6875 
C 51.203125 40.796875 55 42 58.203125 42 
C 64.40625 42 67.203125 38.703125 67.203125 31.703125 
L 67.203125 5.203125 
L 65.40625 3.59375 
L 60.703125 3.09375 
L 60.703125 -0.5 
L 82.5 -0.5 
L 82.5 3.09375 
L 77.203125 3.59375 
L 75.5 5.203125 
L 75.5 33.390625 
C 75.5 43.296875 70.5 48.578125 62.59375 48.578125 
C 58.59375 48.578125 52.90625 46.28125 45.40625 41.890625 
z
" id="Bitstream_Charter-109"/>
      <path d="M 26.90625 49 
C 13.40625 49 3.703125 38.90625 3.703125 24 
C 3.703125 9.1875 13.5 -1 26.90625 -1 
C 40.296875 -1 50.203125 9.1875 50.203125 24 
C 50.203125 38.8125 40.40625 49 26.90625 49 
z
M 26.90625 44.71875 
C 35 44.71875 40.796875 36.90625 40.796875 23.984375 
C 40.796875 10.984375 35 3.28125 26.90625 3.28125 
C 18.90625 3.28125 13.09375 11.078125 13.09375 23.984375 
C 13.09375 37.015625 18.796875 44.71875 26.90625 44.71875 
z
" id="Bitstream_Charter-111"/>
      <path d="M -0.203125 48 
L -0.203125 44.3125 
L 5.90625 43.71875 
L 19.203125 0 
L 25.40625 0 
L 38.90625 37.828125 
L 51 0 
L 57.203125 0 
L 71.5 43.515625 
L 77.09375 44.3125 
L 77.09375 48 
L 59.40625 48 
L 59.40625 44.3125 
L 64.796875 43.921875 
L 65.59375 42.3125 
L 55.40625 9.875 
L 43.59375 48 
L 37.5 48 
L 24.09375 9.875 
L 15 42.3125 
L 16.203125 43.921875 
L 21.5 44.3125 
L 21.5 48 
z
" id="Bitstream_Charter-119"/>
      <path d="M 2.5 0.5 
L 24.40625 0.5 
L 24.40625 4.0625 
L 19.703125 4.5625 
L 17.90625 6.15625 
L 17.90625 23 
L 23.703125 23 
L 37.203125 3.765625 
L 37.203125 0.5 
L 52.796875 0.5 
L 52.796875 4.265625 
L 46.40625 4.765625 
L 28.796875 29.40625 
L 42.5 43.984375 
L 48.90625 44.78125 
L 48.90625 48.5 
L 29.90625 48.5 
L 29.90625 44.78125 
L 34.40625 44.390625 
L 35.09375 42.96875 
L 19.796875 25.796875 
L 17.90625 25.796875 
L 17.90625 74 
L 14.09375 74 
L 1.90625 70.234375 
L 1.90625 67 
L 9.59375 67 
L 9.59375 6.15625 
L 7.90625 4.5625 
L 2.5 4.0625 
z
" id="Bitstream_Charter-107"/>
      <path d="M 38.59375 71.65625 
C 20.796875 69.46875 10.59375 54.390625 10.59375 28.453125 
C 10.59375 2.890625 21.203125 -12.171875 38.59375 -14.171875 
L 38.59375 -9.984375 
C 25.203125 -7.6875 19.09375 4.890625 19.09375 28.34375 
C 19.09375 52.296875 24.90625 65.078125 38.59375 67.46875 
z
" id="Bitstream_Charter-40"/>
      <path d="M 3 -0.5 
L 24.90625 -0.5 
L 24.90625 3.09375 
L 20.09375 3.59375 
L 18.40625 5.203125 
L 18.40625 38.6875 
C 22.703125 40.90625 26.40625 42 29.59375 42 
C 37 42 39.703125 39 39.703125 31.703125 
L 39.703125 5.203125 
L 38 3.59375 
L 33.203125 3.09375 
L 33.203125 -0.5 
L 55.09375 -0.5 
L 55.09375 3.09375 
L 49.703125 3.59375 
L 48 5.203125 
L 48 33.390625 
C 48 43.390625 43.203125 48.578125 34.5 48.578125 
C 30.203125 48.578125 25.09375 46.28125 18.40625 42.59375 
L 18.40625 48.078125 
L 14.59375 48.078125 
L 3 44.484375 
L 3 41.390625 
L 10.09375 41.390625 
L 10.09375 5.203125 
L 8.40625 3.59375 
L 3 3.09375 
z
" id="Bitstream_Charter-110"/>
      <path d="M 14.203125 49 
L 2.59375 45.1875 
L 2.59375 42 
L 9.703125 42 
L 9.703125 14.1875 
C 9.703125 4.265625 14.5 -1 23.09375 -1 
C 28 -1 33.296875 1.296875 39.296875 5.59375 
L 39.296875 0 
L 54.09375 0 
L 54.09375 3.59375 
L 49.40625 4.09375 
L 47.59375 5.6875 
L 47.59375 49 
L 43.796875 49 
L 32.203125 45.1875 
L 32.203125 42 
L 39.296875 42 
L 39.296875 8.359375 
C 35.203125 6.375 31.40625 5.390625 27.703125 5.390625 
C 21 5.390625 18 8.78125 18 15.96875 
L 18 49 
z
" id="Bitstream_Charter-117"/>
      <path d="M 34.40625 46.8125 
C 31 48.3125 27.09375 49 22.703125 49 
C 11.296875 49 5 43.796875 5 35 
C 5 28.296875 9.40625 25.09375 17.90625 21.296875 
C 24.5 18.28125 28.09375 16.484375 28.09375 11.28125 
C 28.09375 6.59375 24.5 3.1875 18.703125 3.1875 
C 15.796875 3.1875 13 3.984375 10.203125 5.578125 
L 9 14.09375 
L 4.203125 14.09375 
L 4.203125 1.09375 
C 7.703125 -0.203125 12.09375 -1 17.203125 -1 
C 29 -1 35.90625 4.703125 35.90625 14 
C 35.90625 17.703125 34.5 20.703125 32.09375 22.609375 
C 28.796875 25.296875 25 26.703125 21.5 28.40625 
C 15.90625 31.109375 13 33.203125 13 37.515625 
C 13 42.015625 16 44.71875 21.296875 44.71875 
C 23.703125 44.71875 26.09375 44.015625 28.703125 42.625 
L 29.5 35.5 
L 34.40625 35.5 
z
" id="Bitstream_Charter-115"/>
      <path d="M 3.09375 71.65625 
L 3.09375 67.46875 
C 16.796875 65.078125 22.59375 52.296875 22.59375 28.34375 
C 22.59375 4.890625 16.5 -7.6875 3.09375 -9.984375 
L 3.09375 -14.171875 
C 20.5 -12.171875 31.09375 2.890625 31.09375 28.453125 
C 31.09375 54.390625 20.90625 69.46875 3.09375 71.65625 
z
" id="Bitstream_Charter-41"/>
     </defs>
     <g style="fill:#ffffff;" transform="translate(173.353994 284.381595)scale(0.16 -0.16)">
      <use transform="scale(0.95642)" xlink:href="#Bitstream_Charter-116"/>
      <use transform="translate(31.944387 0)scale(0.95642)" xlink:href="#Bitstream_Charter-114"/>
      <use transform="translate(68.479621 0)scale(0.95642)" xlink:href="#Bitstream_Charter-97"/>
      <use transform="translate(116.970115 0)scale(0.95642)" xlink:href="#Bitstream_Charter-118"/>
      <use transform="translate(164.2173 0)scale(0.95642)" xlink:href="#Bitstream_Charter-101"/>
      <use transform="translate(211.177536 0)scale(0.95642)" xlink:href="#Bitstream_Charter-108"/>
      <use transform="translate(264.832683 0)scale(0.95642)" xlink:href="#Bitstream_Charter-116"/>
      <use transform="translate(296.77707 0)scale(0.95642)" xlink:href="#Bitstream_Charter-105"/>
      <use transform="translate(323.556804 0)scale(0.95642)" xlink:href="#Bitstream_Charter-109"/>
      <use transform="translate(404.183059 0)scale(0.95642)" xlink:href="#Bitstream_Charter-101"/>
      <use transform="translate(477.82744 0)scale(0.95642)" xlink:href="#Bitstream_Charter-116"/>
      <use transform="translate(509.771827 0)scale(0.95642)" xlink:href="#Bitstream_Charter-111"/>
      <use transform="translate(588.006964 0)scale(0.95642)" xlink:href="#Bitstream_Charter-119"/>
      <use transform="translate(661.746934 0)scale(0.95642)" xlink:href="#Bitstream_Charter-111"/>
      <use transform="translate(713.297926 0)scale(0.95642)" xlink:href="#Bitstream_Charter-114"/>
      <use transform="translate(749.83316 0)scale(0.95642)" xlink:href="#Bitstream_Charter-107"/>
      <use transform="translate(825.964234 0)scale(0.95642)" xlink:href="#Bitstream_Charter-40"/>
      <use transform="translate(865.846931 0)scale(0.95642)" xlink:href="#Bitstream_Charter-109"/>
      <use transform="translate(946.473186 0)scale(0.95642)" xlink:href="#Bitstream_Charter-105"/>
      <use transform="translate(973.25292 0)scale(0.95642)" xlink:href="#Bitstream_Charter-110"/>
      <use transform="translate(1027.577553 0)scale(0.95642)" xlink:href="#Bitstream_Charter-117"/>
      <use transform="translate(1081.997882 0)scale(0.95642)" xlink:href="#Bitstream_Charter-116"/>
      <use transform="translate(1113.942269 0)scale(0.95642)" xlink:href="#Bitstream_Charter-101"/>
      <use transform="translate(1160.902505 0)scale(0.95642)" xlink:href="#Bitstream_Charter-115"/>
      <use transform="translate(1199.159265 0)scale(0.95642)" xlink:href="#Bitstream_Charter-41"/>
     </g>
    </g>
   </g>
   <g id="matplotlib.axis_2">
    <g id="ytick_1">
     <g id="line2d_7">
      <defs>
       <path d="M 0 0 
L -3.5 0 
" id="m229ffa9669" style="stroke:#ffffff;stroke-width:0.8;"/>
      </defs>
      <g>
       <use style="fill:#ffffff;stroke:#ffffff;stroke-width:0.8;" x="87.658037" xlink:href="#m229ffa9669" y="246.969106"/>
      </g>
     </g>
     <g id="text_8">
      <!-- $0.00$ -->
      <defs>
       <path d="M 13.90625 11.671875 
C 10.40625 11.671875 7.5 8.875 7.5 5.28125 
C 7.5 1.6875 10.40625 -1 13.90625 -1 
C 17.40625 -1 20.203125 1.78125 20.203125 5.28125 
C 20.203125 8.875 17.40625 11.671875 13.90625 11.671875 
z
" id="Bitstream_Charter-46"/>
      </defs>
      <g style="fill:#ffffff;" transform="translate(50.878992 252.707627)scale(0.16 -0.16)">
       <use transform="scale(0.95642)" xlink:href="#Bitstream_Charter-48"/>
       <use transform="translate(53.176929 0)scale(0.95642)" xlink:href="#Bitstream_Charter-46"/>
       <use transform="translate(79.765394 0)scale(0.95642)" xlink:href="#Bitstream_Charter-48"/>
       <use transform="translate(132.942323 0)scale(0.95642)" xlink:href="#Bitstream_Charter-48"/>
      </g>
     </g>
    </g>
    <g id="ytick_2">
     <g id="line2d_8">
      <g>
       <use style="fill:#ffffff;stroke:#ffffff;stroke-width:0.8;" x="87.658037" xlink:href="#m229ffa9669" y="197.100517"/>
      </g>
     </g>
     <g id="text_9">
      <!-- $0.01$ -->
      <g style="fill:#ffffff;" transform="translate(50.878992 202.839037)scale(0.16 -0.16)">
       <use transform="scale(0.95642)" xlink:href="#Bitstream_Charter-48"/>
       <use transform="translate(53.176929 0)scale(0.95642)" xlink:href="#Bitstream_Charter-46"/>
       <use transform="translate(79.765394 0)scale(0.95642)" xlink:href="#Bitstream_Charter-48"/>
       <use transform="translate(132.942323 0)scale(0.95642)" xlink:href="#Bitstream_Charter-49"/>
      </g>
     </g>
    </g>
    <g id="ytick_3">
     <g id="line2d_9">
      <g>
       <use style="fill:#ffffff;stroke:#ffffff;stroke-width:0.8;" x="87.658037" xlink:href="#m229ffa9669" y="147.231927"/>
      </g>
     </g>
     <g id="text_10">
      <!-- $0.02$ -->
      <g style="fill:#ffffff;" transform="translate(50.878992 152.970448)scale(0.16 -0.16)">
       <use transform="scale(0.95642)" xlink:href="#Bitstream_Charter-48"/>
       <use transform="translate(53.176929 0)scale(0.95642)" xlink:href="#Bitstream_Charter-46"/>
       <use transform="translate(79.765394 0)scale(0.95642)" xlink:href="#Bitstream_Charter-48"/>
       <use transform="translate(132.942323 0)scale(0.95642)" xlink:href="#Bitstream_Charter-50"/>
      </g>
     </g>
    </g>
    <g id="ytick_4">
     <g id="line2d_10">
      <g>
       <use style="fill:#ffffff;stroke:#ffffff;stroke-width:0.8;" x="87.658037" xlink:href="#m229ffa9669" y="97.363338"/>
      </g>
     </g>
     <g id="text_11">
      <!-- $0.03$ -->
      <g style="fill:#ffffff;" transform="translate(50.878992 103.101859)scale(0.16 -0.16)">
       <use transform="scale(0.95642)" xlink:href="#Bitstream_Charter-48"/>
       <use transform="translate(53.176929 0)scale(0.95642)" xlink:href="#Bitstream_Charter-46"/>
       <use transform="translate(79.765394 0)scale(0.95642)" xlink:href="#Bitstream_Charter-48"/>
       <use transform="translate(132.942323 0)scale(0.95642)" xlink:href="#Bitstream_Charter-51"/>
      </g>
     </g>
    </g>
    <g id="ytick_5">
     <g id="line2d_11">
      <g>
       <use style="fill:#ffffff;stroke:#ffffff;stroke-width:0.8;" x="87.658037" xlink:href="#m229ffa9669" y="47.494749"/>
      </g>
     </g>
     <g id="text_12">
      <!-- $0.04$ -->
      <g style="fill:#ffffff;" transform="translate(50.878992 53.23327)scale(0.16 -0.16)">
       <use transform="scale(0.95642)" xlink:href="#Bitstream_Charter-48"/>
       <use transform="translate(53.176929 0)scale(0.95642)" xlink:href="#Bitstream_Charter-46"/>
       <use transform="translate(79.765394 0)scale(0.95642)" xlink:href="#Bitstream_Charter-48"/>
       <use transform="translate(132.942323 0)scale(0.95642)" xlink:href="#Bitstream_Charter-52"/>
      </g>
     </g>
    </g>
    <g id="text_13">
     <!-- \% of TUT staff -->
     <defs>
      <path d="M 18.09375 68.59375 
C 9.09375 68.59375 3.09375 60.84375 3.09375 47.5625 
C 3.09375 34.0625 9 26.40625 18.09375 26.40625 
C 27.203125 26.40625 33.09375 34.15625 33.09375 47.5625 
C 33.09375 60.84375 27.09375 68.59375 18.09375 68.59375 
z
M 60.796875 67.390625 
L 18.09375 0.203125 
L 24.09375 0.203125 
L 66.90625 67.390625 
z
M 17.90625 65 
C 23 65 25.90625 59.140625 25.90625 47.5625 
C 25.90625 35.953125 23.09375 30 17.90625 30 
C 12.796875 30 10.09375 35.953125 10.09375 47.5625 
C 10.09375 59.046875 12.90625 65 17.90625 65 
z
M 67.09375 41 
C 58.09375 41 52.09375 33.28125 52.09375 20.0625 
C 52.09375 6.625 58 -1 67.09375 -1 
C 76.203125 -1 82.09375 6.71875 82.09375 20.0625 
C 82.09375 33.28125 76.09375 41 67.09375 41 
z
M 66.90625 37.5 
C 72 37.5 74.90625 31.578125 74.90625 20.046875 
C 74.90625 8.515625 72.09375 2.59375 66.90625 2.59375 
C 61.796875 2.59375 59.09375 8.515625 59.09375 20.046875 
C 59.09375 31.484375 61.90625 37.5 66.90625 37.5 
z
" id="Bitstream_Charter-37"/>
      <path d="M 2.90625 0 
L 26.203125 0 
L 26.203125 3.59375 
L 20 4.09375 
L 18.296875 5.6875 
L 18.296875 42 
L 32.296875 42 
L 32.296875 46.6875 
L 18.40625 46.6875 
L 18.40625 54.046875 
C 18.40625 62.515625 20.59375 67.765625 24.90625 69.765625 
L 34 63.71875 
C 36.59375 64.421875 38.09375 66.328125 38.09375 68.75 
C 38.09375 71.984375 34.90625 74.5 30.296875 74.5 
C 18.5 74.5 10 64.515625 10 47.8125 
C 10 47.5 10 47.09375 10 46.6875 
L 3.59375 45.1875 
L 3.59375 42 
L 10 42 
L 10 5.6875 
L 8.203125 4.09375 
L 2.90625 3.59375 
z
" id="Bitstream_Charter-102"/>
      <path d="M 1.59375 66.59375 
L 1.59375 51.203125 
L 7.09375 51.203125 
L 8.5 60.515625 
L 9.90625 62 
L 25.296875 62 
L 25.296875 5.5 
L 23.5 4.09375 
L 16.796875 3.59375 
L 16.796875 -0.5 
L 42.90625 -0.5 
L 42.90625 3.59375 
L 36.203125 4.09375 
L 34.40625 5.5 
L 34.40625 62 
L 49.796875 62 
L 51.203125 60.515625 
L 52.59375 51.203125 
L 58.09375 51.203125 
L 58.09375 66.59375 
z
" id="Bitstream_Charter-84"/>
      <path d="M 2.5 67 
L 2.5 63.015625 
L 8.203125 62.40625 
L 9.90625 61.03125 
L 9.90625 24.09375 
C 9.90625 16.71875 10.40625 11.25 14.296875 6.578125 
C 18.09375 2 25.5 -1 35 -1 
C 44.5 -1 51.90625 2 55.703125 6.578125 
C 59.59375 11.25 60.09375 16.828125 60.09375 24.09375 
L 60.09375 60.328125 
L 61.90625 62.109375 
L 67.90625 63.015625 
L 67.90625 67 
L 46.796875 67 
L 46.796875 63.015625 
L 52.796875 62.109375 
L 54.703125 60.328125 
L 54.703125 25 
C 54.703125 11.46875 49.5 5.1875 36.90625 5.1875 
C 24.09375 5.1875 19 11.46875 19 25 
L 19 61.03125 
L 20.796875 62.40625 
L 27 63.015625 
L 27 67 
z
" id="Bitstream_Charter-85"/>
     </defs>
     <g style="fill:#ffffff;" transform="translate(43.420587 181.101103)rotate(-90)scale(0.16 -0.16)">
      <use transform="scale(0.95642)" xlink:href="#Bitstream_Charter-37"/>
      <use transform="translate(108.171156 0)scale(0.95642)" xlink:href="#Bitstream_Charter-111"/>
      <use transform="translate(159.722148 0)scale(0.95642)" xlink:href="#Bitstream_Charter-102"/>
      <use transform="translate(217.107387 0)scale(0.95642)" xlink:href="#Bitstream_Charter-84"/>
      <use transform="translate(274.205676 0)scale(0.95642)" xlink:href="#Bitstream_Charter-85"/>
      <use transform="translate(340.581249 0)scale(0.95642)" xlink:href="#Bitstream_Charter-84"/>
      <use transform="translate(424.363684 0)scale(0.95642)" xlink:href="#Bitstream_Charter-115"/>
      <use transform="translate(462.620444 0)scale(0.95642)" xlink:href="#Bitstream_Charter-116"/>
      <use transform="translate(494.564831 0)scale(0.95642)" xlink:href="#Bitstream_Charter-97"/>
      <use transform="translate(543.055324 0)scale(0.95642)" xlink:href="#Bitstream_Charter-102"/>
      <use transform="translate(573.756418 0)scale(0.95642)" xlink:href="#Bitstream_Charter-102"/>
     </g>
    </g>
   </g>
   <g id="patch_4">
    <path d="M 87.658037 246.969106 
L 87.658037 18.52 
" style="fill:none;stroke:#ffffff;stroke-linecap:square;stroke-linejoin:miter;stroke-width:0.8;"/>
   </g>
   <g id="patch_5">
    <path d="M 457.296455 246.969106 
L 457.296455 18.52 
" style="fill:none;stroke:#ffffff;stroke-linecap:square;stroke-linejoin:miter;stroke-width:0.8;"/>
   </g>
   <g id="patch_6">
    <path d="M 87.658037 246.969106 
L 457.296455 246.969106 
" style="fill:none;stroke:#ffffff;stroke-linecap:square;stroke-linejoin:miter;stroke-width:0.8;"/>
   </g>
   <g id="patch_7">
    <path d="M 87.658037 18.52 
L 457.296455 18.52 
" style="fill:none;stroke:#ffffff;stroke-linecap:square;stroke-linejoin:miter;stroke-width:0.8;"/>
   </g>
  </g>
 </g>
 <defs>
  <clipPath id="p2d6cf069c6">
   <rect height="228.449106" width="369.638418" x="87.658037" y="18.52"/>
  </clipPath>
 </defs>
</svg>
